<?xml version="1.0" encoding="utf-8"?>
<!-- Generator: Adobe Illustrator 22.0.0, SVG Export Plug-In . SVG Version: 6.00 Build 0)  -->
<svg version="1.1" id="Layer_1" xmlns="http://www.w3.org/2000/svg" xmlns:xlink="http://www.w3.org/1999/xlink" x="0px" y="0px"
	 viewBox="0 0 62.5 62.3" style="enable-background:new 0 0 62.5 62.3;" xml:space="preserve">
<style type="text/css">
	.st0{fill:#1D71B8;}
</style>
<g>
	<path class="st0" d="M62.5,2.6c0-0.7-0.3-1.4-0.7-1.9S60.5,0,59.9,0c-3,0.1-23.9,1.2-35.8,17.7l-8.8,1.5c-2.2,0.4-4.1,1.7-5.2,3.6
		L0,40.2l16.8-0.3c0.4,0.9,0.9,1.8,1.5,2.4L8,54.3l12-10.2c0.7,0.6,1.5,1.2,2.4,1.6l-0.3,16.6l17.4-10.1c1.9-1.1,3.2-2.9,3.6-5
		l1.8-8.7l0,0C61.3,26.5,62.4,5.6,62.5,2.6z M56.5,15.4c-1-1.5-2.4-3.2-4.3-5.1C50.3,8.4,48.5,7,47.1,6c4.8-1.5,9-2,11.5-2.1
		C58.4,6.4,57.9,10.6,56.5,15.4z M13.4,24.8c0.6-0.9,1.5-1.6,2.6-1.8l5.4-0.9c-2.1,3.9-3.7,8.5-4.6,13.9l-10,0.2L13.4,24.8z
		 M39.3,46.4c-0.2,1-0.9,1.9-1.8,2.5l-11.4,6.7l0.2-9.7c5.5-0.9,10.1-2.5,14.1-4.6L39.3,46.4z M24.2,42.2c-0.3,0-0.7-0.3-1.2-0.7
		l7.3-6.3c0.9-0.9,0.9-2.4,0-3.3c-0.9-0.9-2.4-0.9-3.3,0l-6.2,7.3c-0.3-0.4-0.5-0.9-0.5-1.1c2.4-17.7,12.6-26.2,22.1-30.4
		c1.1,0.5,3.8,2,7.1,5.2c3.3,3.3,4.7,6,5.2,7.1C50.6,29.7,42,39.9,24.2,42.2z"/>
	<path class="st0" d="M39.2,15.6c-2,0-4,0.8-5.4,2.2c-3,3-3,7.8,0,10.8c1.4,1.4,3.4,2.2,5.4,2.2s4-0.8,5.4-2.2l0,0c3-3,3-7.8,0-10.8
		C43.2,16.4,41.2,15.6,39.2,15.6z M41.9,26c-0.7,0.7-1.7,1.1-2.7,1.1s-2-0.4-2.7-1.1c-1.5-1.5-1.5-3.9,0-5.4
		c0.7-0.7,1.7-1.1,2.7-1.1s2,0.4,2.7,1.1C43.4,22.1,43.4,24.5,41.9,26z"/>
</g>
</svg>
