<?xml version="1.0" encoding="UTF-8" ?>
<!DOCTYPE svg PUBLIC "-//W3C//DTD SVG 1.1//EN" "http://www.w3.org/Graphics/SVG/1.1/DTD/svg11.dtd">
<svg width="300pt" height="300pt" viewBox="0 0 300 300" version="1.1" xmlns="http://www.w3.org/2000/svg">
    <g id="#3e3e3eff">
        <path fill="#1d71b8" opacity="1.00" d=" M 61.89 38.83 C 68.13 32.71 77.65 29.69 86.11 32.56 C 92.76 34.55 97.49 39.88 102.28 44.59 C 110.17 52.73 118.25 60.68 126.22 68.74 C 131.89 74.45 135.19 82.98 133.05 90.97 C 131.54 97.52 126.81 102.56 122.12 107.09 C 117.42 111.88 112.66 116.61 107.74 121.19 C 113.68 134.68 123.14 146.24 133.05 157.00 C 146.37 171.13 161.32 184.19 178.96 192.62 C 185.12 186.55 191.15 180.36 197.33 174.32 C 202.03 169.78 208.41 166.72 215.05 166.99 C 221.26 167.14 227.09 170.23 231.38 174.61 C 240.22 183.44 249.05 192.29 257.90 201.12 C 262.53 205.44 266.84 210.62 268.05 217.02 C 269.72 224.49 266.90 232.34 261.93 237.97 C 256.43 244.10 250.04 249.37 244.67 255.62 C 239.53 261.52 232.47 265.70 224.85 267.42 C 217.67 269.10 210.19 268.63 202.96 267.52 C 189.98 265.48 177.57 260.80 165.70 255.26 C 132.82 239.67 103.37 216.84 80.19 188.78 C 63.70 168.95 49.46 146.97 40.33 122.76 C 35.15 109.22 31.35 94.71 32.79 80.10 C 33.62 71.39 37.62 63.07 43.80 56.89 C 49.81 50.86 55.80 44.80 61.89 38.83 M 75.29 42.43 C 72.80 43.37 70.78 45.16 68.93 47.02 C 62.80 53.21 56.59 59.33 50.47 65.53 C 46.80 69.23 44.20 73.98 43.25 79.11 C 41.55 89.88 43.82 100.82 47.13 111.06 C 56.94 140.79 74.83 167.22 95.69 190.31 C 119.05 215.93 147.76 236.85 179.80 250.23 C 191.30 254.87 203.49 258.51 215.99 258.44 C 223.91 258.38 231.54 254.65 236.66 248.65 C 242.15 242.18 248.65 236.68 254.39 230.45 C 256.93 227.67 258.87 223.91 258.19 220.04 C 257.59 216.25 254.84 213.37 252.22 210.78 C 242.32 201.03 232.54 191.16 222.71 181.35 C 220.41 179.03 217.33 177.18 213.97 177.33 C 210.72 177.47 207.81 179.28 205.54 181.50 C 199.01 187.94 192.62 194.55 186.02 200.93 C 182.65 204.26 177.15 204.34 173.34 201.70 C 153.39 191.86 136.21 177.10 121.57 160.49 C 112.19 149.77 103.50 138.17 98.01 124.93 C 96.35 121.30 96.83 116.69 99.80 113.87 C 106.37 107.74 112.67 101.32 118.97 94.92 C 121.53 92.31 123.74 88.86 123.37 85.06 C 122.92 80.64 119.56 77.42 116.58 74.47 C 107.13 65.21 98.01 55.61 88.53 46.39 C 85.26 42.83 80.05 40.31 75.29 42.43 Z" />
    </g>
</svg>
