<?xml version="1.0" encoding="UTF-8" ?>
<!DOCTYPE svg PUBLIC "-//W3C//DTD SVG 1.1//EN" "http://www.w3.org/Graphics/SVG/1.1/DTD/svg11.dtd">
<svg width="300pt" height="300pt" viewBox="0 0 300 300" version="1.1" xmlns="http://www.w3.org/2000/svg">
<g id="#3e3e3eff">
<path fill="#3e3e3e" opacity="1.00" d=" M 130.00 30.00 C 143.33 30.00 156.67 30.00 170.00 30.00 C 169.99 32.00 169.99 34.00 170.00 36.00 C 164.33 36.00 158.67 36.00 153.00 36.00 C 153.00 44.28 153.00 52.57 153.00 60.85 C 170.36 62.25 187.71 63.59 205.06 65.03 C 207.66 65.01 210.03 67.26 209.95 69.89 C 210.08 77.91 209.96 85.94 210.00 93.97 C 210.23 96.31 209.10 98.86 206.77 99.67 C 204.22 100.27 201.57 99.94 198.99 100.01 C 164.64 99.99 130.28 100.00 95.93 100.00 C 93.36 100.30 90.53 98.69 90.14 95.99 C 89.81 92.68 90.04 89.34 90.02 86.02 C 90.61 74.81 84.54 64.83 80.02 54.99 C 102.35 56.81 124.67 58.57 147.00 60.36 C 147.00 52.24 147.00 44.12 147.00 36.00 C 141.33 36.00 135.66 36.00 130.00 36.00 C 130.00 34.00 130.00 32.00 130.00 30.00 M 90.01 61.82 C 92.34 67.34 94.73 72.92 95.71 78.87 C 96.29 83.89 95.88 88.96 96.00 94.00 C 132.00 94.00 168.00 94.00 204.00 94.00 C 204.00 86.32 204.00 78.63 204.00 70.95 C 166.00 67.88 128.00 64.86 90.01 61.82 Z" />
<path fill="#3e3e3e" opacity="1.00" d=" M 93.23 105.33 C 94.44 105.05 95.67 104.93 96.92 104.98 C 132.62 105.03 168.32 104.99 204.02 105.00 C 206.34 104.78 208.84 105.91 209.66 108.20 C 210.11 109.76 209.97 111.41 210.03 113.01 C 209.92 157.37 210.10 201.72 209.94 246.07 C 209.77 258.67 198.57 269.77 186.00 269.95 C 162.02 270.04 138.03 270.03 114.05 269.95 C 101.43 269.79 90.25 258.68 90.05 246.06 C 89.93 201.03 90.03 156.00 90.00 110.97 C 89.77 108.64 90.92 106.13 93.23 105.33 M 96.00 111.00 C 96.01 155.65 95.98 200.31 96.02 244.96 C 95.73 255.12 104.84 264.25 115.00 263.99 C 138.33 264.01 161.67 264.01 185.01 263.98 C 192.46 264.09 199.64 259.30 202.48 252.42 C 204.39 248.23 203.98 243.50 204.00 239.02 C 204.00 196.34 204.00 153.67 204.00 111.00 C 187.00 111.00 170.00 111.00 153.00 111.00 C 153.00 136.67 153.00 162.33 153.00 188.00 C 159.37 188.09 165.75 187.82 172.11 188.13 C 180.84 188.73 188.91 194.42 192.61 202.32 C 195.82 208.77 194.93 216.18 194.95 223.15 C 195.03 226.20 191.95 228.40 189.06 228.00 C 163.03 228.00 137.00 228.00 110.97 228.00 C 108.38 228.30 105.55 226.71 105.15 224.01 C 104.85 219.65 104.93 215.25 105.12 210.89 C 105.79 200.49 113.78 191.19 123.88 188.77 C 131.48 187.28 139.30 188.30 147.00 188.00 C 147.00 162.33 147.00 136.67 147.00 111.00 C 130.00 111.00 113.00 111.00 96.00 111.00 M 112.52 205.59 C 110.24 210.75 111.19 216.53 111.00 222.00 C 137.00 222.00 163.00 222.00 189.00 222.00 C 188.81 216.52 189.76 210.72 187.47 205.55 C 184.61 198.68 177.43 193.91 169.98 194.02 C 156.65 193.99 143.31 193.99 129.97 194.02 C 122.52 193.93 115.35 198.71 112.52 205.59 Z" />
</g>
</svg>
