<?xml version="1.0" encoding="UTF-8" ?>
<!DOCTYPE svg PUBLIC "-//W3C//DTD SVG 1.1//EN" "http://www.w3.org/Graphics/SVG/1.1/DTD/svg11.dtd">
<svg width="300pt" height="300pt" viewBox="0 0 300 300" version="1.1" xmlns="http://www.w3.org/2000/svg">
<g id="#ffffffff">
</g>
<g id="#3e3e3eff">
<path fill="#3e3e3e" opacity="1.00" d=" M 133.27 46.72 C 132.36 43.94 135.03 40.99 137.82 41.06 C 145.92 40.95 154.04 40.96 162.14 41.05 C 164.94 40.98 167.66 43.93 166.73 46.73 C 165.26 51.42 163.60 56.05 162.08 60.73 C 179.08 63.02 197.15 68.03 209.20 80.99 C 218.13 81.01 227.05 81.00 235.98 81.00 C 239.80 84.82 243.63 88.65 247.47 92.45 C 249.33 94.54 251.84 97.05 250.75 100.12 C 247.40 119.40 244.09 138.70 240.78 157.99 C 238.85 157.64 236.93 157.30 235.01 156.96 C 238.35 137.46 241.79 117.98 245.04 98.46 C 241.18 94.68 237.38 90.86 233.58 87.02 C 227.10 86.98 220.63 87.01 214.15 87.00 C 210.99 109.69 207.67 132.36 204.63 155.06 C 203.76 160.23 199.71 164.28 195.01 166.27 C 194.99 172.76 194.99 179.25 195.01 185.73 C 199.45 187.63 203.32 191.29 204.45 196.11 C 207.60 215.50 211.43 234.79 214.82 254.14 C 215.58 260.35 211.44 266.53 205.75 268.85 C 202.37 270.31 198.60 269.97 195.01 270.01 C 163.31 269.97 131.61 270.04 99.91 269.98 C 91.71 270.17 84.19 262.43 85.17 254.19 C 88.56 234.82 92.40 215.52 95.55 196.11 C 96.68 191.29 100.55 187.63 104.99 185.74 C 105.01 179.25 105.00 172.76 104.99 166.27 C 100.31 164.28 96.26 160.26 95.39 155.11 C 94.37 147.66 92.82 140.31 91.55 132.91 C 90.38 125.57 87.05 118.82 83.74 112.24 C 78.10 101.49 71.73 91.12 65.01 81.01 C 73.61 80.98 82.20 81.02 90.80 80.99 C 102.85 68.03 120.93 63.03 137.93 60.73 C 136.40 56.05 134.74 51.41 133.27 46.72 M 139.65 47.00 C 141.10 51.34 142.54 55.67 143.98 60.00 C 147.99 60.00 152.00 60.00 156.01 60.00 C 157.46 55.67 158.91 51.34 160.35 47.00 C 153.45 47.00 146.55 47.00 139.65 47.00 M 99.43 80.95 C 133.14 81.04 166.86 81.03 200.57 80.95 C 186.19 70.13 167.67 66.27 149.98 66.00 C 132.30 66.27 113.80 70.14 99.43 80.95 M 76.07 87.01 C 83.75 99.61 91.70 112.31 96.23 126.46 C 98.34 135.74 99.83 145.16 101.42 154.54 C 102.33 158.29 106.08 160.99 109.90 160.97 C 117.50 161.06 125.11 160.97 132.71 161.00 C 128.47 136.33 124.25 111.66 120.00 87.00 C 105.36 87.00 90.71 86.99 76.07 87.01 M 125.95 87.00 C 130.17 111.66 134.42 136.32 138.64 160.98 C 146.22 161.00 153.80 161.03 161.38 160.97 C 165.56 136.31 169.84 111.66 174.05 87.00 C 158.02 87.00 141.98 87.00 125.95 87.00 M 180.00 87.00 C 175.75 111.67 171.53 136.33 167.29 161.00 C 174.90 160.96 182.50 161.07 190.10 160.96 C 194.21 161.01 198.16 157.86 198.76 153.75 C 201.76 131.49 205.02 109.26 208.10 87.00 C 198.73 87.00 189.36 87.00 180.00 87.00 M 111.00 167.00 C 111.00 173.00 111.00 179.00 111.00 185.00 C 137.00 185.00 163.00 185.00 189.00 185.00 C 189.00 179.00 189.00 173.00 189.00 167.00 C 163.00 167.00 137.00 167.00 111.00 167.00 M 101.40 197.54 C 98.28 216.37 94.62 235.11 91.29 253.90 C 90.05 258.98 94.81 264.09 99.88 263.97 C 106.70 264.06 113.52 263.96 120.35 264.00 C 124.54 239.67 128.69 215.33 132.88 191.00 C 125.25 191.03 117.61 190.94 109.98 191.03 C 106.10 190.98 102.30 193.73 101.40 197.54 M 138.81 191.00 C 134.64 215.34 130.46 239.67 126.29 264.00 C 142.10 264.00 157.90 264.00 173.71 264.00 C 169.54 239.67 165.36 215.33 161.18 191.00 C 153.72 191.00 146.27 190.99 138.81 191.00 M 167.12 191.00 C 171.29 215.32 175.49 239.64 179.63 263.97 C 186.44 264.00 193.27 264.05 200.09 263.97 C 205.16 264.11 209.97 259.01 208.71 253.90 C 205.37 235.09 201.71 216.34 198.60 197.50 C 197.69 193.73 193.93 191.01 190.10 191.03 C 182.44 190.94 174.78 191.03 167.12 191.00 Z" />
</g>
</svg>
