<?xml version="1.0" encoding="UTF-8" ?>
<!DOCTYPE svg PUBLIC "-//W3C//DTD SVG 1.1//EN" "http://www.w3.org/Graphics/SVG/1.1/DTD/svg11.dtd">
<svg width="300pt" height="300pt" viewBox="0 0 300 300" version="1.1" xmlns="http://www.w3.org/2000/svg">
<g id="#ffffffff">
</g>
<g id="#3e3e3eff">
<path fill="#3e3e3e" opacity="1.00" d=" M 105.01 30.01 C 135.00 29.99 165.00 29.99 194.99 30.01 C 195.01 38.34 195.01 46.66 194.99 54.99 C 190.00 55.01 185.00 54.99 180.01 55.01 C 179.99 62.00 179.99 69.00 180.01 75.99 C 186.67 76.03 193.33 75.97 199.99 76.01 C 200.01 109.34 200.01 142.66 199.99 175.99 C 166.66 176.01 133.34 176.01 100.01 175.99 C 99.99 142.66 99.99 109.34 100.01 76.01 C 106.67 75.97 113.33 76.03 119.99 75.99 C 120.01 69.00 120.01 62.00 119.99 55.01 C 115.00 54.99 110.00 55.01 105.01 54.99 C 104.99 46.66 104.99 38.34 105.01 30.01 M 111.01 36.01 C 110.98 40.34 110.98 44.66 111.01 48.99 C 137.00 49.01 162.99 49.00 188.98 48.99 C 189.02 44.66 189.02 40.34 188.99 36.01 C 163.00 35.99 137.01 35.99 111.01 36.01 M 126.01 55.01 C 125.99 62.00 125.99 69.00 126.01 75.99 C 142.00 76.01 158.00 76.01 173.99 75.99 C 174.01 69.00 174.01 62.00 173.99 55.01 C 158.00 54.99 142.00 54.99 126.01 55.01 M 106.01 82.01 C 105.99 111.34 106.00 140.66 106.01 169.99 C 110.67 170.02 115.33 170.02 119.99 169.99 C 120.01 140.66 120.01 111.34 119.99 82.01 C 115.33 81.98 110.67 81.98 106.01 82.01 M 126.01 82.01 C 125.99 111.34 125.99 140.66 126.01 169.99 C 142.00 170.01 158.00 170.01 173.99 169.99 C 174.01 140.66 174.01 111.34 173.99 82.01 C 158.00 81.99 142.00 81.99 126.01 82.01 M 180.01 82.01 C 179.99 111.34 179.99 140.66 180.01 169.99 C 184.67 170.02 189.33 170.02 193.99 169.99 C 194.00 140.66 194.01 111.34 193.99 82.01 C 189.33 81.98 184.67 81.98 180.01 82.01 Z" />
<path fill="#3e3e3e" opacity="1.00" d=" M 148.43 97.33 C 153.09 95.02 156.41 102.92 151.57 104.67 C 146.91 106.99 143.59 99.08 148.43 97.33 Z" />
<path fill="#3e3e3e" opacity="1.00" d=" M 148.43 122.33 C 153.09 120.02 156.42 127.93 151.57 129.67 C 146.90 131.98 143.59 124.08 148.43 122.33 Z" />
<path fill="#3e3e3e" opacity="1.00" d=" M 148.43 147.33 C 151.22 145.95 154.71 148.79 153.91 151.81 C 153.50 154.56 149.94 155.91 147.74 154.31 C 145.17 152.76 145.56 148.33 148.43 147.33 Z" />
<path fill="#3e3e3e" opacity="1.00" d=" M 79.99 183.01 C 126.66 182.99 173.34 182.99 220.01 183.02 C 219.99 185.00 219.99 186.99 220.01 188.98 C 173.34 189.01 126.66 189.01 79.99 188.98 C 80.01 186.99 80.01 185.00 79.99 183.01 Z" />
<path fill="#3e3e3e" opacity="1.00" d=" M 80.01 196.01 C 132.70 195.98 185.38 196.01 238.07 195.99 C 243.52 195.73 249.04 198.49 251.81 203.24 C 255.11 208.57 253.77 215.12 253.97 221.05 C 254.10 228.66 247.64 235.67 239.99 235.92 C 233.33 236.14 226.66 235.91 220.00 236.01 C 219.87 241.62 220.57 247.42 218.75 252.84 C 216.25 260.53 209.77 266.74 202.02 268.98 C 198.45 270.07 194.68 270.03 190.99 270.02 C 161.96 269.94 132.93 270.08 103.91 269.95 C 91.36 269.69 80.29 258.65 80.05 246.09 C 79.94 229.40 80.02 212.70 80.01 196.01 M 86.01 202.01 C 86.00 216.37 85.98 230.72 86.01 245.08 C 85.93 252.52 90.72 259.67 97.59 262.49 C 101.48 264.27 105.84 264.02 110.01 264.01 C 138.36 263.97 166.72 264.03 195.08 263.99 C 204.79 264.19 213.66 255.81 213.94 246.09 C 214.08 231.40 213.97 216.70 213.99 202.01 C 202.65 201.99 191.32 201.98 179.98 202.02 C 180.03 204.24 179.79 206.51 180.27 208.70 C 182.66 212.32 187.07 213.91 189.66 217.35 C 190.29 220.15 190.10 223.09 189.85 225.93 C 189.52 228.69 186.65 230.26 184.06 230.00 C 161.36 230.00 138.65 230.00 115.94 230.00 C 113.35 230.26 110.48 228.69 110.15 225.93 C 109.94 223.11 109.63 220.13 110.41 217.38 C 112.96 213.92 117.41 212.38 119.72 208.71 C 120.21 206.52 119.96 204.24 120.02 202.02 C 108.68 201.98 97.35 201.99 86.01 202.01 M 126.04 202.00 C 125.89 205.49 126.59 209.41 124.45 212.46 C 122.23 215.59 118.91 217.67 116.00 220.10 C 116.00 221.38 115.99 222.67 115.99 223.96 C 138.66 224.03 161.33 224.03 184.01 223.96 C 184.00 222.65 184.01 221.35 184.02 220.04 C 181.13 217.61 177.79 215.58 175.58 212.45 C 173.38 209.42 174.12 205.49 173.97 202.00 C 157.99 202.00 142.01 202.00 126.04 202.00 M 220.01 202.01 C 219.99 211.34 219.99 220.66 220.01 229.99 C 226.64 229.93 233.28 230.18 239.90 229.89 C 244.05 229.63 247.65 226.07 247.90 221.91 C 248.11 217.94 248.11 213.96 247.89 210.00 C 247.61 205.55 243.47 201.96 239.06 202.03 C 232.71 201.91 226.36 202.03 220.01 202.01 Z" />
</g>
</svg>
