<?xml version="1.0" encoding="UTF-8" ?>
<!DOCTYPE svg PUBLIC "-//W3C//DTD SVG 1.1//EN" "http://www.w3.org/Graphics/SVG/1.1/DTD/svg11.dtd">
<svg width="300pt" height="300pt" viewBox="0 0 300 300" version="1.1" xmlns="http://www.w3.org/2000/svg">
<g id="#ffffffff">
</g>
<g id="#3e3e3eff">
<path fill="#3e3e3e" opacity="1.00" d=" M 63.13 125.76 C 62.40 122.41 65.70 119.53 68.93 120.00 C 123.31 120.00 177.70 120.00 232.08 120.00 C 234.97 119.64 238.13 121.85 237.92 124.95 C 237.61 129.46 236.68 133.90 236.17 138.39 C 244.14 136.55 252.70 134.65 260.72 137.32 C 265.46 138.81 269.01 143.12 269.67 148.03 C 271.31 156.30 267.27 164.69 260.96 169.93 C 251.45 177.90 239.32 181.93 227.36 184.51 C 221.65 203.66 217.21 224.26 204.09 240.00 C 222.80 240.07 241.51 239.87 260.21 240.10 C 255.25 245.03 249.19 248.65 243.17 252.13 C 227.50 260.89 210.25 267.10 192.38 269.23 C 183.96 270.28 175.46 269.95 167.00 270.00 C 152.00 270.00 137.00 269.99 122.00 270.01 C 98.18 270.23 74.74 262.65 54.32 250.68 C 49.18 247.59 44.05 244.36 39.79 240.10 C 59.60 239.86 79.42 240.08 99.23 239.99 C 89.40 228.42 84.04 213.95 79.38 199.71 C 71.84 175.59 66.87 150.73 63.13 125.76 M 69.28 126.00 C 72.70 149.55 77.51 172.94 84.39 195.73 C 88.42 208.18 92.77 220.82 100.35 231.62 C 103.41 235.62 107.37 240.27 112.91 240.01 C 138.97 240.00 165.03 240.00 191.09 240.00 C 196.64 240.25 200.36 235.31 203.27 231.27 C 211.11 219.11 215.30 205.07 219.21 191.27 C 224.93 169.84 228.89 147.98 231.80 126.01 C 177.63 125.99 123.45 126.00 69.28 126.00 M 235.07 145.12 C 233.25 156.13 231.06 167.07 228.76 177.98 C 237.78 175.87 246.76 172.74 254.43 167.43 C 259.78 163.72 264.45 157.83 263.99 150.97 C 264.09 147.38 261.98 143.68 258.32 142.83 C 250.60 140.86 242.50 142.80 235.07 145.12 M 58.55 246.11 C 72.84 254.58 88.76 260.39 105.19 262.88 C 114.72 264.38 124.39 263.94 134.00 264.00 C 148.33 264.00 162.66 263.99 177.00 264.01 C 199.63 264.41 222.05 257.54 241.45 246.11 C 224.64 245.85 207.82 246.08 191.00 246.00 C 146.85 246.08 102.70 245.85 58.55 246.11 Z" />
</g>
</svg>
